Muhammed MacIntyre,3
Barry French,293
Barry French,293
Clay Rozendal,483
Carlos Soltero,515
Carlos Soltero,515
Carl Jackson,613
Carl Jackson,613
Monica Federle,643
Dorothy Badders,678
Neola Schneider,807
Neola Schneider,807
Carlos Daly,868
Carlos Daly,868
Claudia Miner,933
Neola Schneider,995
Allen Rosenblatt,998
Sylvia Foulston,1154
Sylvia Foulston,1154
Jim Radford,1344
Jim Radford,1344
Carlos Soltero,1412
Carlos Soltero,1412
Carl Ludwig,1539
Carl Ludwig,1539
Don Miller,1540
Annie Cyprus,1702
Carl Ludwig,1761
Carlos Soltero,1792
Grant Carroll,2275
Don Miller,2277
Don Miller,2277
Alan Barnes,2532
Alan Barnes,2532
Jack Garza,2631
Julia West,2757
Eugene Barchas,2791
Eugene Barchas,2791
Eugene Barchas,2791
Edward Hooks,2976
Brad Eason,3232
Nicole Hansen,3524
Dorothy Wardle,3908
Aaron Bergman,4132
Jim Radford,4612
Annie Cyprus,4676
Annie Cyprus,4676
Annie Cyprus,4676
Annie Cyprus,4676
Annie Cyprus,5284
Clay Rozendal,5316
Don Jones,5409
Beth Thompson,5506
Frank Price,5569
Michelle Lonsdale,5607
Ann Chong,5894
Ann Chong,5894
Joy Bell,5925
Joy Bell,5925
Skye Norling,6016
Barry Weirich,6116
Grant Carroll,6182
Grant Carroll,6182
Adrian Hane,6535
Skye Norling,6884
Skye Norling,6884
Andrew Gjertsen,6916
Ralph Knight,6980
Dorothy Wardle,6982
Dorothy Wardle,6982
Dorothy Wardle,6982
Grant Carroll,7110
Barry Weirich,7430
Beth Paige,7906
Sylvia Foulston,8391
Nicole Hansen,8419
Nicole Hansen,8419
Nicole Hansen,8833
Beth Paige,8995
Beth Paige,8995
Beth Paige,8995
Beth Paige,8995
Beth Paige,8995
Sylvia Foulston,9126
Bryan Davis,9127
Joy Bell,9509
Joy Bell,9509
Joy Bell,9509
Alan Barnes,9763
Grant Carroll,9927
Grant Carroll,9927
Grant Carroll,9927
Delfina Latchford,10022
Don Jones,10437
Doug Bickford,10499
Doug Bickford,10535
Doug Bickford,10535
Jamie Kunitz,10789
Anthony Johnson,10791
Ralph Knight,10945
